{
    "pools": [
        {
            "rolls": 1,
            "entries": [
                {
                    "type": "minecraft:item",
                    "name": "minecraft:clock",
                    "functions": [
                        {
                            "function": "minecraft:set_nbt",
                            "tag": "{origami-games:{launch:{item:\"tungsten_artefact\"}},display:{Name:'{\"translate\":\"item.launch.tungsten_artefact\",\"italic\":false}'},CustomModelData:18}"
                        }
                    ]
                }
            ]
        }
    ]
}
