{
    "parent": "item/generated",
    "textures": {
        "layer0": "item/cooked_porkchop"
    },
    "overrides": [
        {
            "predicate": {
                "custom_model_data": 1
            },
            "model": "origami-games:launch/item/cooked_wolf_chop"
        }
    ]
}
