{
    "parent": "item/handheld",
    "textures": {
        "layer0": "item/diamond_axe"
    },
    "overrides": [
        {
            "predicate": {
                "custom_model_data": 1
            },
            "model": "origami-games:launch/item/verdant_axe"
        }
    ]
}
