{
    "pools": [
        {
            "rolls": 1,
            "entries": [
                {
                    "type": "minecraft:item",
                    "name": "minecraft:stick",
                    "functions": [
                        {
                            "function": "minecraft:set_nbt",
                            "tag": "{origami-games:{launch:{entity:\"fire_ant\",entity_custom:1b,entity_spawning:1b}}}"
                        }
                    ]
                },
                {
                    "type": "minecraft:item",
                    "name": "minecraft:stick",
                    "functions": [
                        {
                            "function": "minecraft:set_nbt",
                            "tag": "{origami-games:{launch:{entity:\"none\",entity_custom:1b,entity_spawning:1b}}}"
                        }
                    ],
                    "weight": 10
                }
            ]
        }
    ]
}
