summon silverfish ~ ~ ~ {Silent:1,PersistenceRequired:1b,Attributes:[{Name:generic.attackDamage,Base:2},{Name:generic.maxHealth,Base:1000}],Health:1000.0f,Invulnerable:1b,Tags:["lch_entity","lch_fire_ant","lch_vehicle"],CustomName:'{"translate":"entity.launch.fire_ant"}',ActiveEffects:[{Id:14,Amplifier:0,Duration:1999980,ShowParticles:0b}],Passengers:[{id:vex,PersistenceRequired:1b,CustomName:'"Grumm"',Silent:1,NoAI:1,Tags:["lch_entity","lch_fire_ant","lch_passenger"],Attributes:[{Name:generic.movementSpeed,Base:0.1},{Name:generic.attackDamage,Base:0}],Health:5,DeathLootTable:"origami-games:launch/entities/fire_ant",ActiveEffects:[{Id:14,Amplifier:0,Duration:1999980,ShowParticles:0b}],ArmorItems:[{},{},{},{id:player_head,Count:1,tag:{HideFlags:1,Enchantments:[{id:"unbreaking",lvl:1}],display:{Name:'{"translate":"item.launch.fire_ant_husk","italic":false}'},SkullOwner:{Id:"bfc3845d-0b61-3d37-b324-a9ee8d634152",Properties:{textures:[{Value:"eyJ0ZXh0dXJlcyI6eyJTS0lOIjp7InVybCI6Imh0dHA6Ly90ZXh0dXJlcy5taW5lY3JhZnQubmV0L3RleHR1cmUvZjE0MmEzNWFjMGIwNTVlZDUwYTVjYmY4NzBiNmVmMWNjMWY5NGUyNjQyYjliYTY1MGM5ZTAzODVlNmNiZTM2In19fQ=="}]}}}}],ArmorDropChances:[-1.0F,-1.0F,-1.0F,-1.0F],Passengers:[{id:area_effect_cloud,Particle:smoke,Age:-2147483648,Duration:-1,WaitTime:-2147483648,Radius:0.2,Tags:["lch_entity","lch_fire_ant","lch_passenger"],CustomName:'{"translate":"entity.launch.fire_ant"}'}]}]}
tp @s[type=!player] ~ -512 ~
data merge entity @s {Health:0,DeathTime:19,DeathLootTable:"minecraft:empty"}
fill ~ ~ ~ ~ ~ ~ air replace command_block
