summon husk ~ ~ ~ {PersistenceRequired:1b,Silent:1,IsBaby:1,CustomName:'{"translate":"entity.launch.sand_crawler"}',Tags:["lch_entity","lch_sand_crawler","lch_passenger","lch_vehicle","lch_sound"],DeathLootTable:"origami-games:launch/entities/sand_crawler",Attributes:[{Name:generic.movementSpeed,Base:.35},{Name:generic.maxHealth,Base:20.0}],Health:20,ArmorItems:[{},{},{},{}],ArmorDropChances:[-1.0F,-1.0F,-1.0F,-1.0F],ActiveEffects:[{Id:14,Amplifier:0,Duration:1999980,ShowParticles:0b},{Id:10,Amplifier:9,Duration:999999,ShowParticles:0b}],Passengers:[{id:slime,Size:1,PersistenceRequired:1b,Silent:1,CustomName:'{"translate":"entity.launch.sand_crawler"}',Tags:["lch_entity","lch_sand_crawler","lch_passenger","lch_vehicle","lch_sound"],DeathLootTable:"origami-games:launch/entities/sand_crawler",Attributes:[{Name:generic.movementSpeed,Base:1},{Name:generic.maxHealth,Base:20.0}],Health:20,ArmorItems:[{},{},{},{}],ArmorDropChances:[-1.0F,-1.0F,-1.0F,-1.0F],ActiveEffects:[{Id:14,Amplifier:0,Duration:1999980,ShowParticles:0b},{Id:10,Amplifier:9,Duration:999999,ShowParticles:0b}],Passengers:[{id:area_effect_cloud,Particle:"block sandstone",Age:-2147483648,Duration:-1,WaitTime:-2147483648,Radius:1.5,CustomName:'{"translate":"entity.launch.sand_crawler"}',Effects:[{Id:25,Amplifier:19,Duration:5,ShowParticles:0b}],Tags:["lch_entity","lch_sand_crawler","lch_passenger"]}]}]}
tp @s[type=!player] ~ -512 ~
data merge entity @s {Health:0,DeathTime:19,DeathLootTable:"minecraft:empty"}
fill ~ ~ ~ ~ ~ ~ air replace command_block
