summon slime ~ ~ ~ {CustomName:'{"translate":"entity.launch.slime_queen"}',PersistenceRequired:1b,Tags:["lch_entity","lch_slime_queen","lch_vehicle"],Size:2,DeathLootTable:"origami-games:launch/entities/slime_queen",Passengers:[{id:area_effect_cloud,Particle:happy_villager,Radius:1.2,Age:-2147483648,Duration:-1,WaitTime:-2147483648,Tags:["lch_entity","lch_slime_queen","lch_passenger"]},{id:slime,PersistenceRequired:1b,Size:1,DeathLootTable:"origami-games:launch/entities/slime_queen",Tags:["lch_entity","lch_slime_queen","lch_passenger","lch_vehicle"],Passengers:[{id:slime,Tags:["lch_entity","lch_slime_queen","lch_passenger","lch_vehicle"],Size:0,DeathLootTable:"origami-games:launch/entities/slime_queen",Passengers:[{id:slime,Tags:["lch_entity","lch_slime_queen","lch_passenger"],Size:0,PersistenceRequired:1b,DeathLootTable:"origami-games:launch/entities/slime_queen"}]}]}]}
tp @s[type=!player] ~ -512 ~
data merge entity @s {Health:0,DeathTime:19,DeathLootTable:"minecraft:empty"}
fill ~ ~ ~ ~ ~ ~ air replace command_block
