summon slime ~ ~.1 ~ {Invulnerable:1,PersistenceRequired:1,Size:0,Tags:["lch_entity","lch_treemanoid","lch_vehicle","lch_vehicle_bottom"],CustomName:'{"translate":"entity.launch.treemanoid"}',Silent:1,ActiveEffects:[{Id:14,Amplifier:0,Duration:1999980,ShowParticles:0b}],Passengers:[{id:area_effect_cloud,Age:-2147483648,Duration:-1,WaitTime:-2147483648,Radius:1.5,Tags:["lch_entity","lch_treemanoid","lch_vehicle"],Particle:happy_villager,Effects:[{Id:10,Amplifier:0,Duration:200},{Id:26,Amplifier:2,Duration:200}],Passengers:[{id:"falling_block",Tags:["lch_entity","lch_treemanoid","lch_passenger","lch_vehicle"],BlockState:{Name:spruce_log},Time:-32767,DropItem:0,Passengers:[{id:"falling_block",Tags:["lch_entity","lch_treemanoid","lch_passenger","lch_vehicle"],BlockState:{Name:spruce_log},Time:-32767,DropItem:0,Passengers:[{id:"falling_block",Tags:["lch_entity","lch_treemanoid","lch_passenger","lch_vehicle"],BlockState:{Name:spruce_log},Time:-32767,DropItem:0,Passengers:[{id:"falling_block",Tags:["lch_entity","lch_treemanoid","lch_passenger","lch_vehicle"],BlockState:{Name:spruce_log},Time:-32767,DropItem:0,Passengers:[{id:"falling_block",Tags:["lch_entity","lch_treemanoid","lch_passenger","lch_vehicle"],BlockState:{Name:jungle_leaves},Time:-32767,DropItem:0,Passengers:[{id:"slime",DeathLootTable:"origami-games:launch/entities/treemanoid",Size:2,Tags:["lch_entity","lch_treemanoid","lch_passenger","lch_passenger_top"],PersistenceRequired:1b,CustomName:'{"translate":"entity.launch.treemanoid"}',Silent:1,ArmorDropChances:[0.5F,0.3F,0.5F,0.5F]}]}]}]}]}]}]}]}
tp @s[type=!player] ~ -512 ~
data merge entity @s {Health:0,DeathTime:19,DeathLootTable:"minecraft:empty"}
fill ~ ~ ~ ~ ~ ~ air replace command_block
